\relax 
\newlabel{g1}{{1}{1}}
\newlabel{l2}{{2}{1}}
\newlabel{l9}{{3}{1}}
\newlabel{l8}{{4}{1}}
\newlabel{l12}{{5}{1}}
\newlabel{l13}{{6}{1}}
\newlabel{l11}{{7}{1}}
\newlabel{l10}{{8}{1}}
\newlabel{l7}{{9}{1}}
\newlabel{l17}{{10}{1}}
\newlabel{l18}{{11}{1}}
\newlabel{l16}{{12}{1}}
\newlabel{l15}{{13}{2}}
\newlabel{l20}{{14}{2}}
\newlabel{l19}{{15}{2}}
\newlabel{l14}{{16}{2}}
\newlabel{l6}{{17}{2}}
\newlabel{l5}{{18}{2}}
\newlabel{l21}{{19}{2}}
\newlabel{l4}{{20}{2}}
\newlabel{l3}{{21}{2}}
\newlabel{l1}{{22}{2}}
